order-id	order-item-id	purchase-date	payments-date	buyer-email	buyer-name	buyer-phone-number	sku	product-name	quantity-purchased	currency	item-price	item-tax	shipping-price	shipping-tax	ship-service-level	recipient-name	ship-address-1	ship-address-2	ship-address-3	ship-city	ship-state	ship-postal-code	ship-country	ship-phone-number	item-promotion-discount	item-promotion-id	ship-promotion-discount	ship-promotion-id	delivery-start-date	delivery-end-date	delivery-time-zone	delivery-Instructions	sales-channel
102-9194867-5573824	2.71557E+13	2009-12-14T07:24:14-08:00	2009-12-14T07:24:14-08:00	mbjames04@gmail.com	James LaDuca	904 553 5435	BAT-LGE-9700-10-003	Original LG Dare / VX9700 Battery	1	USD	14.7	0	2.98	0	Standard	James LaDuca	257 ODOMS MILL BLVD			PONTE VEDRA BEACH	FL	32082-4130	US	904 553 5435	0		0						
102-4422565-2197057	6.63897E+13	2009-12-14T07:32:27-08:00	2009-12-14T07:32:27-08:00	akoble@gmail.com	Ashley Koble	5125876387	FP2-SAM-M800-63	Samsung M800 Cell Phone Multiple Stripes Design Protective Case Faceplate Cover	1	USD	4.94	0	2.98	0	Standard	Ashley Koble	4006 ROLLING HL			ROUND ROCK	TEXAS	78681-3689	US	5125876387	0		0						
002-4198416-8286602	3.52961E+13	2009-12-14T07:50:02-08:00	2009-12-14T07:50:02-08:00	rita_kuznetsov@hotmail.com	Margarita Kuznetsov	203 461 9112	FP3-SAM-A877-17-001	Clip On Rubber Coated Case for Samsung Impression A877 - Dark Blue	1	USD	4.48	0	2.98	0	Standard	Margarita Kuznetsov	28 Mercedes Lane			Stamford	CT	6905	US	203 461 9112	0		0						
105-6339172-4112265	5.88937E+13	2009-12-14T08:12:24-08:00	2009-12-14T08:12:24-08:00	aabutler@yahoo.com	Angela Butler-Wallace	901-837-9466	FP3-SAM-A257-24	New Orange Rubberized Phone Cover for Samsung Magnet A257 A117 ATT Protector Case	1	USD	6	0	2.98	0	Standard	Angela Butler-Wallace	43 Hickory Ln			Millington	TN	38053	US	901-837-9466	0		0						
105-4454962-2361024	1.85471E+13	2009-12-14T08:24:05-08:00	2009-12-14T08:24:05-08:00	jesselfergusonii@gmail.com	Jesse Ferguson	7577061789	HF2-HTC-ADAP-11	HTC Multifunction ALL-IN-ONE Audio Adapter for HTC Touch T-mobile G1 Shadow II Wing Sprint Mogul Att Tilt	1	USD	2.96	0	2.98	0	Standard	Jesse Ferguson	400 LATITUDE LN APT 2A			NEWPORT NEWS	VA	23601-2377	US	7577061789	0		0						
103-7520898-1764262	4.17949E+12	2009-12-14T08:57:49-08:00	2009-12-14T08:57:49-08:00	jesskennicott@yahoo.com	JESSICA L KENNICOTT	6302360184	FP2-LGE-L265-83	LG Rumor2 LX265 Cell Phone Purple/Black Zebra Design Protective Case Faceplate Cover	1	USD	5.93	0	2.98	0	Standard	Jessica Kennicott	2788 Rosehall Lane			Aurora	IL	60503	US	6302360184	0		0						
103-9700455-7213800	4.81086E+13	2009-12-14T08:58:31-08:00	2009-12-14T08:58:31-08:00	erampy7@msn.com	Edgar F Rampy	406-646-4552	HF2-HTC-ADAP-11	HTC Multifunction ALL-IN-ONE Audio Adapter for HTC Touch T-mobile G1 Shadow II Wing Sprint Mogul Att Tilt	1	USD	2.96	0	2.98	0	Standard	Edgar F Rampy	PO Box 587			West Yellowstone	MT	59758	US	406-646-4552	0		0						
002-2690945-8017043	3.26653E+13	2009-12-14T09:14:43-08:00	2009-12-14T09:14:43-08:00	mbanks850@gmail.com	Michael Banks	860-490-8395	FP3-MOT-00V3-10	Motorola Razr V3 V3c V3m Black Rubberize Crystal Case Cover with Removable Ratcheting and Fixed Belt Clip	1	USD	8.99	0	2.98	0	Standard	Michael Banks	64 Jolin Ln			Colchester	Ct	6415	US	860-490-8395	0		0						
102-6836413-4015461	2.39759E+13	2009-12-14T09:18:33-08:00	2009-12-14T09:18:33-08:00	zhou.oliver@gmail.com	Oliver Hao Zhou	2817028482	HF2-HTC-ADAP-11	HTC Multifunction ALL-IN-ONE Audio Adapter for HTC Touch T-mobile G1 Shadow II Wing Sprint Mogul Att Tilt	1	USD	2.96	0	2.98	0	Standard	Oliver Hao Zhou	2926 WILLIAMS GRANT ST			SUGAR LAND	TX	77479-1205	US	2817028482	0		0						
002-6895591-6909008	7.4223E+12	2009-12-14T09:41:07-08:00	2009-12-14T09:41:07-08:00	cntry17566@yahoo.com	Julie Greenhalgh	717 548 2710	BAT-LGE-9700-10-003	Original LG Dare / VX9700 Battery	1	USD	14.7	0	2.98	0	Standard	Julie Greenhalgh	308 PEACH BOTTOM RD			PEACH BOTTOM	PA	17563-9708	US	717 548 2710	0		0						
104-9403934-0677822	2.20492E+13	2009-12-14T09:47:39-08:00	2009-12-14T09:47:39-08:00	knbettenhausen@gmail.com	Kurt Bettenhausen	9728363794	LC5-SAM-A887-14-004	Silicon Skin HOT PINK Rubber Soft Cover Case for Samsung Solstice A887 ATT [WCM130]	1	USD	4.9	0	2.98	0	Standard	Kurt Neil Bettenhausen	4000 E RENNER RD APT 1522			RICHARDSON	TX	75082-2725	US	9728363794	0		0						
105-5200628-3985825	1.998E+13	2009-12-14T10:19:24-08:00	2009-12-14T10:19:24-08:00	vschulze1@comcast.net	Victor Schulze	505-298-9328	HST-AUD-GZON-01-001	Wireless Technologies Ratcheting SwivelBelt Holster for Casio G'zOne S [Retail Packaging]	1	USD	6.99	0	2.98	0	Standard	Victor Schulze	3713 Santa Susana Pl NE			Albuquerque	NM	87111-3819	US	505-298-9328	0		0						
104-5636259-0503437	2.66237E+13	2009-12-14T10:16:37-08:00	2009-12-14T10:16:37-08:00	joanna.shute@jbtc.com	Joanna Shute	9513778048	FP3-PNT-C530-10-001	Black Rubberized Snap on Hard Skin Cover Case for Pantech Slate C530 + Clip	1	USD	4	0	2.98	0	Standard	Joanna Shute	1540 W Linden St			Riverside	CA	92507-6808	US	951-222-2314	0		0						
102-6669525-2209037	2.92132E+12	2009-12-14T10:27:31-08:00	2009-12-14T10:27:31-08:00	kpietro@hotmail.com	Kathryn Pietronuto	631924-4200	FP2-LGE-9900-15-002	"Clip-On Case for LG enV VX9900, Pink"	1	USD	5.98	0	2.98	0	Standard	Kathryn Pietronuto	29 Farner Ave			Selden	NY	11784	US	631924-4200	0		0						
105-7740009-9165814	6.46121E+13	2009-12-14T11:04:36-08:00	2009-12-14T11:04:36-08:00	anneware56@live.co.uk	anne ware	1945587699	PHN-MOT-00K1-03-001	"Motorola KRZR K1 Unlocked Cell Phone with 2 MP Camera, Media Player, MicroSD Slot--U.S. Version with Warranty (Cosmic Blue)"	1	USD	151.57	0	2.98	0	Standard	skai harris	288 HALL OF FAME DR APT 288			KNOXVILLE	TENNESSEE	37915-1962	US	8652498777	0		0						
104-7664914-9367469	5.1983E+13	2009-12-14T11:17:00-08:00	2009-12-14T11:17:00-08:00	coffey_kristi@yahoo.com	Kristi Coffey	8657896309	LC5-SAM-A887-27	Premium Soft GREEN Durable Rubber Silicone Skin Case for Samsung A887 Solstice (ATT)	1	USD	5	0	2.98	0	Standard	Courtney Mason	1294 MCGUIRE RD			NEW MARKET	TN	37820-5106	US	865-789-6309	0		0						
102-5985454-2766620	2.00177E+13	2009-12-14T11:25:04-08:00	2009-12-14T11:25:04-08:00	jennie_tucker@yahoo.com	Jennie Tucker	6509968949	FP3-PAM-0PRE-21-010	New Purple Rubberized Phone Cover for Palm Pre Sprint Case	1	USD	4.97	0	2.98	0	Standard	Jennie Tucker	567 El Camino Real			San Bruno	Ca	94066	US	650 996 8949	0		0						
103-2475085-4675413	4.49372E+13	2009-12-14T11:28:03-08:00	2009-12-14T11:28:03-08:00	vsb@fuse.net	Vickie Brock	859-356-8228	FP3-PNT-C530-21-001	Purple Rubberized Snap on Hard Skin Cover Case for Pantech Slate C530 + Clip	1	USD	4	0	2.98	0	Standard	Vickie Brock	4362 Silversmith Lane			Independence	KY	41051	US	859-356-8228	0		0						
103-7289200-0064208	2.70753E+13	2009-12-14T11:30:15-08:00	2009-12-14T11:30:15-08:00	boodram.savitri@gmail.com	Savitri Boodram	2178414485	FP5-APL-IPH3-35	Sparkling Purple Black Zebra Full Diamond Rhinestones Bling Design - Snap On Hard Cover Protector Faceplate Case for ATT Apple Iphone 3G 3GS	1	USD	14.41	0	2.98	0	Standard	Savitri Boodram	1508 Marc Trail			Urbana	IL	61802	US	2178414485	0		0						
104-5475725-6356232	4.44516E+13	2009-12-14T11:54:17-08:00	2009-12-14T11:54:17-08:00	Alesha044@live.com	Robert Summers	2053656264	FP2-SAM-T459-44	NEW Black Pink Flower Butterfly Snap-On Cover Case Cell Phone Protector for Samsung T459 Gravity	1	USD	9.94	0	2.98	0	Standard	Alesha Summers	5869 34th Street N.			Birmingham	AL	35207	US	205-643-2032	0		0						
102-9768849-0177848	5.91104E+13	2009-12-14T11:56:30-08:00	2009-12-14T11:56:30-08:00	jlp182@hotmail.com	JOSE LUIS PERALTA	718-578-7914	BAT-LGE-9700-10	"NEW OEM LG VX9700 DARE VX9600 Versa Battery SBPL0095401 LG VX9700 DARE, VX9600 Versa"	1	USD	11.49	0	2.98	0	Standard	JOSE LUIS PERALTA	86-49 GRAND AVE.	2 FLOOR		ELMHURST	NY	11373	US	718-578-7914	0		0						
103-5297510-4905053	5.85657E+13	2009-12-14T12:10:00-08:00	2009-12-14T12:10:00-08:00	sengelbrecht@sbcglobal.net	Sharon Engelbrecht	4176240397	LC5-SAM-A887-27	Premium Soft GREEN Durable Rubber Silicone Skin Case for Samsung A887 Solstice (ATT)	1	USD	5	0	2.98	0	Standard	Sharon Engelbrecht	1002 Sheridan Dr.			Joplin	MO	64801	US	4176240397	0		0						
104-4794976-0534600	4.13494E+13	2009-12-14T12:17:17-08:00	2009-12-14T12:17:17-08:00	canucok@gmail.com	Landon Defa	801-915-9952	CLP-UNI-HANG-01	"Cliphanger-Universal Caddy for Handheld Devices, Colors May Vary"	4	USD	19.96	0	11.92	0	Standard	Landon Defa	33 E 8640 S			SANDY	UTAH	84070-1521	US	801-915-9952	0		0						
103-4012947-6463421	2.13543E+13	2009-12-14T12:36:57-08:00	2009-12-14T12:36:57-08:00	neilgibbons@hotmail.com	Farrell O'Neil Gibbons Jr.	850-233-7909	LC5-APL-IPHN-14-002	Wireless Technologies Silicon Skin for iPhone 1G (Blue)	1	USD	9.99	0	2.98	0	Standard	Farrell O. Gibbons Jr.	5205 Bella Casa Place			Panama City Beach	FL	32408	US	850-233-7909	0		0						wireless-emporium-inc.amazonwebstore.com
104-2789502-5953862	5.51566E+13	2009-12-14T12:45:06-08:00	2009-12-14T12:45:06-08:00	raycleveland@gmail.com	Raymond Allen Cleveland	520-237-9885	HF2-HTC-ADAP-11	HTC Multifunction ALL-IN-ONE Audio Adapter for HTC Touch T-mobile G1 Shadow II Wing Sprint Mogul Att Tilt	1	USD	2.96	0	2.98	0	Standard	Raymond Cleveland	6614 E TANQUE VERDE RD			TUCSON	AZ	85715-3814	US	520-237-9885	0		0						
103-3084390-2963412	6.65822E+13	2009-12-14T13:00:10-08:00	2009-12-14T13:00:10-08:00	lamberc4@aol.com	cheryl p lambert	937-520-3171	FP3-MOT-00V3-10	Motorola Razr V3 V3c V3m Black Rubberize Crystal Case Cover with Removable Ratcheting and Fixed Belt Clip	1	USD	8.99	0	2.98	0	Standard	cheryl lambert	2443 tarpon bay drive			miamisburg	OH	45342	US	9375203171	0		0						
104-7981774-0068208	3.30588E+13	2009-12-14T13:00:27-08:00	2009-12-14T13:00:27-08:00	fredman44@yahoo.com	Fred Sabin Jr	909-944-3904	FP3-MOT-V750-10	Motorola Adventure V750 Verizon BLACK Rubber Coating Hard Plastic Snap-On Protective Rubberized Faceplate Carrying Case Cover With Removable Belt Clip	1	USD	5.48	0	2.98	0	Standard	Fred Sabin Jr	9395 San Bernardino Rd			Rancho Cucamonga	CA	91730	US	909-944-3904	0		0						
002-8156472-1925049	2.92806E+12	2009-12-14T13:26:42-08:00	2009-12-14T13:26:42-08:00	mhymbaugh@msn.com	Michael W Hymbaugh	7193225373	BAT-LGE-9700-10	"NEW OEM LG VX9700 DARE VX9600 Versa Battery SBPL0095401 LG VX9700 DARE, VX9600 Versa"	1	USD	11.49	0	2.98	0	Standard	Mike Hymbaugh	FARNSWORTH GROUP	4755 FORGE RD STE 150		COLORADO SPRINGS	CO	80907-3307	US	719-322-5373	0		0						
104-2994376-8704226	3.26919E+13	2009-12-14T13:08:22-08:00	2009-12-14T13:08:22-08:00	pardeep.ksharma@gmail.com	Pardeep kumar sharma	5103967997	HF2-HTC-ADAP-11	HTC Multifunction ALL-IN-ONE Audio Adapter for HTC Touch T-mobile G1 Shadow II Wing Sprint Mogul Att Tilt	1	USD	2.96	0	2.98	0	Standard	Pardeep Kumar Sharma	46583 FREMONT BLVD			FREMONT	CA	94538-6409	US	5103967997	0		0						
002-7236746-4379468	5.30744E+13	2009-12-14T13:53:43-08:00	2009-12-14T13:53:43-08:00	asprayberr@stahome.com	anita sprayberry	601-267-5186	FP3-SAM-A777-17	Samsung A777 Cell Phone Blue Rubber Feel Protective Case Faceplate Cover	1	USD	4.93	0	2.98	0	Standard	anita sprayberry	206 PINE ST			WALNUT GROVE	MS	39189-6189	US	601-267-5186	0		0						
105-5354720-1048255	1.11751E+13	2009-12-14T13:54:08-08:00	2009-12-14T13:54:08-08:00	ruffreiter04@yahoo.com	Joshua Reiter	2482989496	FP3-SYO-2700-10-001	Crystal Hard Rubberized Black Cover Case for Sanyo SCP-2700 Sprint [WCM66]	1	USD	5.9	0	2.98	0	Standard	Joshua Reiter	390 W CAMBOURNE ST			FERNDALE	MI	48220-1704	US	2482989496	0		0						
102-1283794-1792231	2.48155E+13	2009-12-14T13:55:46-08:00	2009-12-14T13:55:46-08:00	emilee.campbell@yahoo.com	Emilee Campbell	706 776 7322	BT1-JAB-BT12-01	"Jabra BT125 Bluetooth Headset , Black"	1	USD	25.99	0	2.98	0	Standard	Emilee Campbell	357 YONAH ST			CORNELIA	GA	30531-8012	US	706 776 7322	0		0						
103-0695354-7153838	6.90075E+13	2009-12-14T13:52:17-08:00	2009-12-14T13:52:17-08:00	lsims68@yahoo.com	LATOYA MITCHELL	650-518-4088	FP3-SAM-R810-14	Samsung Finesse R810 Cell Phone Rose Pink Rubber Feel Protective Case Faceplate Cover	1	USD	4.93	0	2.98	0	Standard	LATOYA MITCHELL	364 GUNTER LN			REDWOOD CITY	CA	94065-1079	US	650-518-4088	0		0						
105-1075217-4508231	1.70281E+13	2009-12-14T14:08:32-08:00	2009-12-14T14:08:32-08:00	davidascott@earthlink.net	David Scott	2105877421	LC5-SAM-A887-27	Premium Soft GREEN Durable Rubber Silicone Skin Case for Samsung A887 Solstice (ATT)	1	USD	5	0	2.98	0	Standard	David Scott	1531 Heavens Peak			San Antonio	TX	78258-7298	US	2105877421	0		0						
102-0950451-4865855	8.46502E+12	2009-12-14T14:15:12-08:00	2009-12-14T14:15:12-08:00	shane@directautomovers.com	Andrew Shane Overall	682-597-1980	HF2-HTC-ADAP-11	HTC Multifunction ALL-IN-ONE Audio Adapter for HTC Touch T-mobile G1 Shadow II Wing Sprint Mogul Att Tilt	1	USD	2.96	0	2.98	0	Standard	Andrew Shane Overall	300 E DIVISION ST			ARLINGTON	TX	76011-7509	US	682-597-1980	0		0						
102-1370421-5142643	8.77536E+12	2009-12-14T14:17:28-08:00	2009-12-14T14:17:28-08:00	ronhill@aeneas.net	Ronald Hill	731-668-5910	BAT-AUD-GZON-11	VERIZON CASIO G\'ZONE TYPE-S BTR211 OEM STANDARD BATTERY	1	USD	29.46	0	11.97	0	Expedited	Ronald Hill	73 Glenwood Drive			Jackson	TN	38305-1722	US	731-668-5910	0		0						
104-4450462-7226636	6.46009E+13	2009-12-14T15:27:26-08:00	2009-12-14T15:27:26-08:00	keena_ck@yahoo.com	Keena Cook	7036774833	FP2-HTC-MAGC-35	Clip On Case w/ Belt Clip for HTC Google G2 Magic / MyTouch 3G / Sapphire - White / Black Zebra	1	USD	4.48	0	2.98	0	Standard	Keena Cook	21417 FALLING ROCK TER			ASHBURN	VA	20148-4058	US	7036774833	0		0						
104-5062958-0349855	6.4069E+12	2009-12-14T15:46:20-08:00	2009-12-14T15:46:20-08:00	how07001@byui.edu	Dustin Howarth	559-363-0056	FP3-HTC-MAGC-10-001	Solid Black Rubberized Crystal Hard Cover Case for T-Mobile Google G2 HTC Magic / Mytouch 3G Cell Phone	1	USD	2.01	0	2.98	0	Standard	Dustin Howarth	438 W MAIN ST APT 125			REXBURG	ID	83440-2267	US	559-363-0056	0		0						
002-2574818-9230604	2.93192E+13	2009-12-14T15:49:34-08:00	2009-12-14T15:49:34-08:00	lgraze@san.rr.com	lawrence graze	858-459-7144	HST-LGE-CU72-01-001	LG Shine CU720 Swivel Rotating Belt Clip Cell Phone Holster	1	USD	4.5	0	2.98	0	Standard	lawrence graze	6008 BELLEVUE AVE			LA JOLLA	CA	92037-6706	US	858-459-7144	0		0						
103-7368359-4084262	5.90446E+13	2009-12-14T15:50:48-08:00	2009-12-14T15:50:48-08:00	jjenn2713@yahoo.com	Jennifer Drechnowicz	517-262-0382	FP2-LGE-VX11-38	Zebra Skin Hot Pink and Black Stripes Design Snap-On Cover Hard Case Cell Phone Protector for LG enV Touch VX11000 [No Belt Clip Hole] [Bulk Packaging	1	USD	2.96	0	2.98	0	Standard	Jennifer Drechnowicz	3379 ALLSTON DR			JACKSON	MI	49201-9348	US	517-262-0382	0		0						
002-0526845-4937842	3.4697E+13	2009-12-14T15:59:26-08:00	2009-12-14T15:59:26-08:00	huvane6@yahoo.com	Stephen J. Huvane	9147937285	FP2-LGE-9200-54	Crystal Hard Pink With Checkered Design Cover Case for LG enV3 VX-9200 Verizon [WCM96]	1	USD	5.9	0	2.98	0	Standard	Stephen J. Huvane	37 HICKORY HILL RD			EASTCHESTER	NY	10709-1453	US	9147937285	0		0						
104-8049925-9949832	3.49969E+13	2009-12-14T16:05:41-08:00	2009-12-14T16:05:41-08:00	sercrn@msn.com	Sharrie Rask	503 704-6761	BAT-LGE-00VU-01	NEW Standard QUALITY BATTERY 950 mAh LiIon for LG Vu / CU920 / CU915	1	USD	9.9	0	2.98	0	Standard	Sharrie Rask	14523 NE Stanton Ct			Portland	OR	97230-3700	US	503 704-6761	0		0						
105-2113726-0625839	7.9222E+12	2009-12-14T16:18:46-08:00	2009-12-14T16:18:46-08:00	wcharile1@aol.com	charile wright	276-619-5063	FP2-MOT-I465-30	Premium Designer Crystal Hard Snap-on Case for Motorola I465 Clutch - Cool Hot Pink Checker	1	USD	6	0	2.98	0	Standard	charile wright	24684 HORIZON DR			ABINGDON	VA	24211-5158	US	276-619-5063	0		0						
102-9241811-3167458	4.33342E+12	2009-12-14T16:24:06-08:00	2009-12-14T16:24:06-08:00	Layvin1@yahoo.com	Brianna C Tucker	931-670-5564	BAT-LGE-9700-10	"NEW OEM LG VX9700 DARE VX9600 Versa Battery SBPL0095401 LG VX9700 DARE, VX9600 Versa"	1	USD	11.49	0	11.97	0	Expedited	Brent Allan Atkinson	5150 Sleepy Hollow Road			Centerville	TN	37033	US	9316238921	0		0						
102-9772653-1771451	2.01446E+13	2009-12-14T16:28:11-08:00	2009-12-14T16:28:11-08:00	1mark@markrein.com	Mark Rein	480-214-9414	BAT-LGE-9700-10	"NEW OEM LG VX9700 DARE VX9600 Versa Battery SBPL0095401 LG VX9700 DARE, VX9600 Versa"	1	USD	11.49	0	2.98	0	Standard	Mark Rein	8767 E VIA DE VENTURA STE 370	REIN GROSSOEHME		SCOTTSDALE	AZ	85258-3385	US	480-214-9414	0		0						
105-7004727-4105062	5.63021E+13	2009-12-14T16:41:18-08:00	2009-12-14T16:41:18-08:00	Letty401@comcast.net	Letitia E Fitzpatrick	6094654785	HF2-HTC-ADAP-11	HTC Multifunction ALL-IN-ONE Audio Adapter for HTC Touch T-mobile G1 Shadow II Wing Sprint Mogul Att Tilt	1	USD	2.96	0	2.98	0	Standard	Letitia E Fitzpatrick	313 E Shell Bay Ave			Cape May Court House	NJ	8210	US	6094654785	0		0						
104-3105461-8998603	6.93365E+12	2009-12-14T16:54:30-08:00	2009-12-14T16:54:30-08:00	ecmcfadden@bellsouth.net	Elizabeth C. McFadden	859-745-1007	LC5-SAM-A887-27	Premium Soft GREEN Durable Rubber Silicone Skin Case for Samsung A887 Solstice (ATT)	1	USD	5	0	2.98	0	Standard	Elizabeth C. McFadden	126 LANA LN			WINCHESTER	KY	40391-2386	US	859-745-1007	0		0						
103-5735451-1169069	4.37909E+13	2009-12-14T16:50:04-08:00	2009-12-14T16:50:04-08:00	mrtoofreshforyou@yahoo.com	rasheen smith	3476833203	BAT-PAL-0PRE-02-001	"Extended Li-Ion Battery w/ Battery Cover for Palm Pre, Black"	1	USD	23.49	0	2.98	0	Standard	rasheen smith	121 JEFFERSON AVE APT 18			BROOKLYN	NEW YORK	11216-1656	US	3476833203	0		0						
105-0365759-8967459	1.06876E+13	2009-12-14T17:04:50-08:00	2009-12-14T17:04:50-08:00	wellsbunch@aol.com	Angela Wells	2817978844	LC0-UNI-ZBRA-01-002	"New Zebra Holster Pouch Case for LG Incite CT810, Palm Centro 685, Samsung Omnia i900 i910 ATT"	1	USD	6	0	2.98	0	Standard	Angela Wells	1069 COUNTY ROAD 308			CLEVELAND	TX	77327-0446	US	2817978844	0		0						
102-4364384-1183452	1.87237E+13	2009-12-14T17:10:19-08:00	2009-12-14T17:10:19-08:00	cl.stump@verizon.net	Charles Stump	2143792882	FP3-NOK-E71X-20	New Red Rubberized Phone Cover for Nokia E71X E71 ATT Protector Case	1	USD	6	0	2.98	0	Standard	Charles Stump	8602 McCleery Ln			Rowlett	Texas	75089	US	2143792882	0		0						
105-1200927-9937845	1.38089E+13	2009-12-14T17:10:52-08:00	2009-12-14T17:10:52-08:00	usagurlie869@aol.com	Elizabeth Carlin	8564681000	LC5-BBY-9530-30	Durable Flexible Soft Laser Zebra Silicone Skin Cover Case for BlackBerry Storm 9500 / Thunder 9530 Smartphone by Eforcity	1	USD	5.44	0	2.98	0	Standard	Elizabeth Carlin	249 ELM AVE			MANTUA	NJ	08051-1027	US	8564681000	0		0						
002-4490036-9561026	4.42063E+13	2009-12-14T17:13:34-08:00	2009-12-14T17:13:34-08:00	sbrown@tropical.com	SHARON BROWN C/O RICARDO CHARLTON	12423977205	LC0-UNI-VERT-03-020	Wireless Technologies Premium Leather Pouch with Ratcheting Clip for Motorola RAZR V3	1	USD	7.28	0	2.98	0	Standard	SHARON BROWN C/O RICARDO CHARLTON	4 E. PORT RD	TROPICAL SHIPPING PPB 03-01		OUTPORT MAINTENANCE DEPT.	FL	33404-7598	US	12423977205	0		0						
102-6616225-1726660	1.61062E+13	2009-12-14T18:08:04-08:00	2009-12-14T18:08:04-08:00	rkiene@maine.rr.com	Ronald Kiene	2076026522	BT1-LGE-HB77-01-002	LG HBM-770 Bluetooth Wireless Headset	1	USD	29.67	0	2.98	0	Standard	Ronald Kiene	4 JASMINE DR			SACO	ME	04072-9535	US	2076026522	0		0						
103-9190184-6572228	4.35316E+13	2009-12-14T17:25:59-08:00	2009-12-14T17:25:59-08:00	lilefan1@att.net	Vicky D. Jennings	419-423-9749	BAT-LGE-9700-10	"NEW OEM LG VX9700 DARE VX9600 Versa Battery SBPL0095401 LG VX9700 DARE, VX9600 Versa"	1	USD	11.49	0	2.98	0	Standard	Vicky D. Jennings	2516 NORTHTOWNE DR			FINDLAY	OHIO	45840-2870	US	419-423-9749	0		0						
002-5022212-0953030	2.33936E+13	2009-12-14T17:28:31-08:00	2009-12-14T17:28:31-08:00	gphillips001@gmail.com	Gavin Phillips	6095799183	BAT-LGE-9700-10-003	Original LG Dare / VX9700 Battery	1	USD	14.7	0	11.97	0	Expedited	Gavin Phillips	2617 E MAIN ST			MILLVILLE	NJ	08332-9661	US	6095799183	0		0						
104-9586736-4064236	3.21607E+13	2009-12-14T17:35:44-08:00	2009-12-14T17:35:44-08:00	laurannpacheco@hotmail.com	LAURA A PACHECO	775-340-6270	LC5-LGE-VX88-01	Black Silicone Skin Rubber CASE COVER for LG Venus VX8800 VX-8800	1	USD	8.96	0	2.98	0	Standard	Laura Pacheco	813 Juniper #2			Elko	NV	89801	US	775-340-6270	0		0						
102-0131225-5218668	4.08403E+13	2009-12-14T12:54:15-08:00	2009-12-14T12:54:15-08:00	nicklemoine@bellsouth.net	Nick Lemoine	(318) 442-5842	HF2-HTC-ADAP-11	HTC Multifunction ALL-IN-ONE Audio Adapter for HTC Touch T-mobile G1 Shadow II Wing Sprint Mogul Att Tilt	1	USD	2.96	0	2.98	0	Standard	Nick Lemoine	310 Lake Falls Cir			Pineville	LA	71360-4745	US	(318) 442-5842	0		0						
104-4440747-5453823	1.29188E+13	2009-12-14T17:41:26-08:00	2009-12-14T17:41:26-08:00	barry@labvantage.com	Barry Polhemus	9083330109	BAT-LGE-9700-10	"NEW OEM LG VX9700 DARE VX9600 Versa Battery SBPL0095401 LG VX9700 DARE, VX9600 Versa"	1	USD	11.49	0	11.97	0	Expedited	Barry Polhemus	217 Van Syckels Rd			Hampton	NJ	08827-4027	US	9083330109	0		0						
104-1066144-4347408	9.56158E+12	2009-12-14T17:46:12-08:00	2009-12-14T17:46:12-08:00	hbhsanna08@aol.com	Anna Pope	256-492-9107	BAT-LGE-9700-10-003	Original LG Dare / VX9700 Battery	1	USD	14.7	0	2.98	0	Standard	Anna Pope	2451 COVE CIR S			GADSDEN	AL	35903-7368	US	256-492-9107	0		0						
002-0920675-4314623	2.42298E+13	2009-12-14T18:05:12-08:00	2009-12-14T18:05:12-08:00	jzpb112104@VERIZON.NET	Patti Beattie	2014526396	HST-SAM-U740-01	Samsung Alias SCH-U740 Swivel Rotating Belt Clip Cell Phone Holster	1	USD	5.99	0	2.98	0	Standard	Patti Beattie	11 ROSEMERE CT			FAIRFIELD	NJ	07004-3846	US	2014526396	0		0						
104-2428995-9178627	7.38368E+12	2009-12-14T18:16:51-08:00	2009-12-14T18:16:51-08:00	4kuhaylan@prodigy.net	Darlene Cruit	9038938690	BT1-JAB-BT12-01	"Jabra BT125 Bluetooth Headset , Black"	1	USD	25.99	0	2.98	0	Standard	Darlene Cruit	262 MAYES DR			SHERMAN	TEXAS	75090-2711	US	9038938690	0		0						
105-7823846-8525826	6.27938E+13	2009-12-14T18:23:16-08:00	2009-12-14T18:23:16-08:00	rebecca.rivera@hotmail.com	REBECCA L RIVERA DELGADO	787-360-9775	FP2-SAM-I637-38-001	Snap On Hard Phone Cover ATT Samsung Jack i637 Carbon Fiber Protector Case	1	USD	6	0	2.98	0	Standard	REBECCA L RIVERA DELGADO	Urb Santa Clara	X9 Calle Pino		Guaynabo	PR	969	PR	787-360-9775	0		0						
102-8766309-6507413	4.5984E+13	2009-12-14T18:38:42-08:00	2009-12-14T18:38:42-08:00	weekendfisherwmn@aol.com	Aquila Wagner	6087423543	HST-SAM-U440-01	New Premium Holster Belt Clip for Samsung Gloss U440- Black	1	USD	4	0	2.98	0	Standard	Aquila Wagner	301 W Edgewater			Portage	Wi	53901	US	6087423543	0		0						
103-3606007-2038651	1.79568E+13	2009-12-14T19:10:59-08:00	2009-12-14T19:10:59-08:00	carsonaddie_b@yahoo.com	Mrs. Addie B. Carson	229-815-2830	LC5-LGE-VX91-07	NEW Green Rubber Silicone Skin Protective Case Cover for LG enV2 enV 2 VX9100 VX-9100	1	USD	4.26	0	2.98	0	Standard	Mrs. Addie B. Carson	P. O. Box 187			Americus	GA	31709-0187	US	229-815-2830	0		0						
104-8194852-7566667	2.52924E+13	2009-12-14T19:30:47-08:00	2009-12-14T19:30:47-08:00	miss_piggy1971@hotmail.com	Jennifer Yekel	541-589-0071	FP4-LGE-VX11-14-002	Durable Hard Rose Pink Rubberized Snap-on Protective Case Cover with Diamonds for LG VX11000 enV Touch	1	USD	12.93	0	2.98	0	Standard	Jennifer Yekel	244 HINES BLVD			BURNS	OR	97720-1915	US	5415890071	0		0						
002-4305126-0377006	2.18822E+12	2009-12-14T19:35:58-08:00	2009-12-14T19:35:58-08:00	jojo9754@aol.com	jo ann procacci	5614474567	FP3-LGE-GR50-16	New Green Rubberized Phone Cover for LG Xenon GR500 ATT Protector Case	1	USD	6	0	2.98	0	Standard	joann procacci	1656 ROYAL PALM WAY			BOCA RATON	FLORIDA	33432-7438	US	5612133400	0		0						
105-4056447-6841838	2.96737E+13	2009-12-14T19:42:02-08:00	2009-12-14T19:42:02-08:00	amazon@ulman.net	Matt Ulman	212 268 8048	HF2-SHR-12CM-01-003	Shure I2C-M Stereo Earphones / Headset	1	USD	41.99	0	2.98	0	Standard	Matt Ulman	"40 Clinton Street, 4L"			brooklyn	NY	11201	US	212 268 8048	0		0						
103-9214944-2196260	3.32993E+13	2009-12-14T19:43:10-08:00	2009-12-14T19:43:10-08:00	cowpower@iowatelecom.net	Cindy Sunderman	7125425824	FP3-MOT-QA30-21	Motorola Hint QA30 Cell Phone Purple Rubber Feel Protective Case Faceplate Cover + Free LiveMyLife Wristband	1	USD	4.94	0	2.98	0	Standard	Cindy Sunderman	3338 250TH ST			CLARINDA	IOWA	51632-4033	US	7125425824	0		0						
104-9069301-0556234	5.50886E+13	2009-12-14T19:43:51-08:00	2009-12-14T19:43:51-08:00	tameika_jalane@yahoo.com	Tameika Simmons	814-385-6093	FP4-LGE-9700-10	Black Rubber Feel with White Diamonds Snap-On Cover Hard Case Cell Phone Protector for LG Dare VX-9700 VX9700	1	USD	7.9	0	2.98	0	Standard	Tameika Simmons	3742 STATE ROUTE 208			KENNERDELL	PA	16374-1516	US	814-385-6093	0		0						
105-2398539-2795469	2.48979E+13	2009-12-14T19:59:47-08:00	2009-12-14T19:59:47-08:00	kimberlyd0520@gmail.com	Kimberly Dueboay	469-667-3795	FP2-BBY-9000-10-001	RIM Blackberry Bold 9000 Protector Hard Case Snap On Cover Black	1	USD	4.99	0	2.98	0	Standard	Kimberly Dueboay	600 LEGACY DR APT 1225			PLANO	TEXAS	75023-2216	US	469-667-3795	0		0						
102-8083566-3521007	3.43662E+12	2009-12-14T20:28:53-08:00	2009-12-14T20:28:53-08:00	jlcatm6@aol.com	Elizabeth Drew	913-579-5182	FP3-SYO-2700-14	Crystal Hard Rubberized Hot Pink Cover Case for Sanyo SCP-2700 Sprint [WCM67]	1	USD	5.78	0	2.98	0	Standard	Elizabeth Drew	14332 GRANDVIEW ST			OVERLAND PARK	KS	66221-2287	US	913-579-5182	0		0						
104-0217087-1965030	6.43068E+13	2009-12-14T20:28:45-08:00	2009-12-14T20:28:45-08:00	monicakrumm@aol.com	monica krumm	913-764-4563	FP3-SAM-A257-24	New Orange Rubberized Phone Cover for Samsung Magnet A257 A117 ATT Protector Case	1	USD	6	0	2.98	0	Standard	monica krumm	520 E GRACE TER			OLATHE	KS	66061-4715	US	913-764-4563	0		0						
103-0894672-1033865	1.41848E+11	2009-12-14T20:33:11-08:00	2009-12-14T20:33:11-08:00	janrowt@bellsouth.net	Jan H Teems	770-985-2040	LC5-LGE-CU72-14	Pink Silicone Skin Cover Case Phone Protector for LG SHINE CU-720 CU720	1	USD	6.73	0	2.98	0	Standard	Jan H Teems	3150 PINE COVE CT SW			LILBURN	GA	30047-1967	US	770-985-2040	0		0						
104-6442716-4321801	1.72605E+13	2009-12-14T20:34:38-08:00	2009-12-14T20:34:38-08:00	nick.basil@gmail.com	Nick Basil	5137559723	BAT-LGE-CU72-10-001	Lg Cu720 Shine Battery Lgip-430g Sbpl0090902	1	USD	11.49	0	2.98	0	Standard	Nick Basil	7080 BERRY BLOSSOM CT			HAMILTON	OHIO	45011-9134	US	5137559723	0		0						
104-5888022-3448224	6.63375E+12	2009-12-14T20:45:37-08:00	2009-12-14T20:45:37-08:00	brandysgraphix@yahoo.com	Brandy Roberts	417-231-3118	LC0-UNI-HORI-10	"Executive Black Horizontal Leather Side Case Pouch with Belt Clip and Belt Loops for UTStarcom TXT8010 BLITZ 8010 / LG LOTUS LX600, LX-600 / Motorola"	1	USD	3.48	0	2.98	0	Standard	Brandy Roberts	79 ECHO VALLEY CIR			REEDS SPRING	MO	65737-8591	US	417-231-3118	0		0						
105-3603817-9517811	1.77555E+13	2009-12-14T21:05:29-08:00	2009-12-14T21:05:29-08:00	kellykendall@netscape.net	Kelly Kendall	858-568-1137	HF2-MOT-1472-01	Motorola Micro USB Monaural Headset	1	USD	4.69	0	2.98	0	Standard	Kelly Kendall	10330 MUCHACHA WAY			SAN DIEGO	CA	92124-1220	US	858-568-1137	0		0						
002-3964283-3619421	2.04478E+13	2009-12-14T21:07:54-08:00	2009-12-14T21:07:54-08:00	smxray@yahoo.com	Shelly Martinez	803-547-9527	FP2-LGE-L265-83	LG Rumor2 LX265 Cell Phone Purple/Black Zebra Design Protective Case Faceplate Cover	1	USD	5.93	0	2.98	0	Standard	Shelly Martinez	189 Sea Island Blvd			Fort Mill	SC	29708-8385	US	803-547-9527	0		0						
102-6427090-7089832	5.26667E+13	2009-12-14T21:40:52-08:00	2009-12-14T21:40:52-08:00	jrramos1983@gmail.com	monique j ramos	619 261 7741	FP3-ERI-W760-20-001	Red Rubber Feel Snap-On Cover Hard Case Cell Phone Protector for Sony Ericsson W760	1	USD	7.97	0	2.98	0	Standard	monique j ramos	1428 GROVE ST			SAN DIEGO	CA	92102-1731	US	619 261 7741	0		0						
104-1496583-0813023	4.88642E+12	2009-12-14T21:43:33-08:00	2009-12-14T21:43:33-08:00	geraldandrakel@yahoo.com	Rakel Yr Engles	951-750-3712	HF2-HTC-ADAP-11	HTC Multifunction ALL-IN-ONE Audio Adapter for HTC Touch T-mobile G1 Shadow II Wing Sprint Mogul Att Tilt	1	USD	2.96	0	2.98	0	Standard	Rakel Yr Engles	41001 CRIMSON PILLAR LN			LAKE ELSINORE	CA	92532-1551	US	951-750-3712	0		0						
103-0153074-0232221	6.84136E+13	2009-12-14T21:50:58-08:00	2009-12-14T21:50:58-08:00	akp58@comcast.net	Ann K. Pinca	7172740814	FP2-NOK-6790-41	Premium Designer Hard Snap-on Case for Nokia Surge 6790 ATT - Cool White Dog Paws Print	1	USD	9	0	2.98	0	Standard	Ann K. Pinca	2154 Cloverfield Drive			Lebanon	PA	17046	US	7172740814	0		0						
103-8556494-6457813	7.87114E+12	2009-12-14T21:52:50-08:00	2009-12-14T21:52:50-08:00	cdane_11@yahoo.com	Dara Jane de Jesus	3233796290	HF2-LGE-0UNI-01-001	OEM LG Stereo Hands-free Headset for LG Trax CU575 CU515 Shine CU720 SGEY0007301	1	USD	2.63	0	2.98	0	Standard	Dara Jane de Jesus	8437 cedros avenue	apt 210		PANORAMA CITY	CA	91402-3648	US	3233796290	0		0						
105-5996953-2824249	7.33923E+12	2009-12-14T22:13:25-08:00	2009-12-14T22:13:25-08:00	natematt210@hotmail.com	Nathan T Mattison	315-250-3783	FP2-LGE-GR50-21	LG Xenon GR500 Cell Phone Solid Light Purple Protective Case Faceplate Cover	1	USD	2.01	0	2.98	0	Standard	Nathan Mattison	115 JEFFERSON AVE			MASSENA	NY	13662-1257	US	315-769-9678	0		0						
104-2037560-6311423	1.57501E+13	2009-12-14T22:19:51-08:00	2009-12-14T22:19:51-08:00	gdbarry@comcast.net	Gabrielle Barry	240-462-9595	CC3-NOK-6101-01-050	Retractable Car Charger For Nokia 1200 1208 1209 1255 1325 CDMA 1650 1680 Classic 2118 CDMA 2125 CDMA 2135 2355 CDMA 2505 CDMA 2600 Classic 2630 2660	1	USD	6.91	0	2.98	0	Standard	Mr. Kevin Weaver-Bey	10845 CAMARILLO ST APT 107			NORTH HOLLYWOOD	CA	91602-1362	US	240-462-9595	0		0						
104-7284874-4576227	1.48368E+13	2009-12-15T01:02:43-08:00	2009-12-15T01:02:43-08:00	iceman172_18@yahoo.com	Eric Scott	3043740521	FP5-APL-IPH3-37	"Premium Designer Hard Crystal Snap-on Case for Apple iPhone 3G, 3GS 3G-S - Full Diamond Case with Zebra Print"	1	USD	17	0	2.98	0	Standard	Eric Scott	185 REEVES DR			WELLSBURG	WV	26070-9720	US	3043740521	0		0						
103-7997548-0257000	3.89399E+13	2009-12-15T03:57:05-08:00	2009-12-15T03:57:05-08:00	cheriberi3@aol.com	Cheryl J. Pott	5859050100	LC5-LGE-VX91-07	NEW Green Rubber Silicone Skin Protective Case Cover for LG enV2 enV 2 VX9100 VX-9100	1	USD	4.26	0	2.98	0	Standard	Cheryl Pott	5131 Foster Rd.			Canandaigua	NY	14424	US	585-396-3530	0		0						
102-1678974-1224209	2.29405E+12	2009-12-15T06:06:15-08:00	2009-12-15T06:06:15-08:00	carla.c.nicholson@us.army.mil	Carla Christine Nicholson	317-412-9705	FP3-SAM-I627-10	Samsung Propel PRO i627 Cell Phone Black Rubber Feel Protective Case Faceplate Cover	1	USD	5.66	0	2.98	0	Standard	Carla C. Nicholson	955 CAMBRIDGE LN			EDINBURGH	INDIANA	46124-9442	US	317-412-9705	0		0						
105-2399092-9079434	2.69219E+13	2009-12-15T06:19:18-08:00	2009-12-15T06:19:18-08:00	jason.eubanks@yahoo.com	Micah J Eubanks	314-401-7345	BAT-LGE-TRAX-10	Lg Cu515 Battery 1000mah Lgip-520a Sbpl0086901	1	USD	10.99	0	2.98	0	Standard	Kathy Eubanks	704 S PARK LN			DEXTER	MISSOURI	63841-2455	US	314-420-1117	0		0						
103-9232964-8900207	3.62573E+13	2009-12-15T06:33:17-08:00	2009-12-15T06:33:17-08:00	b_mascia@yahoo.com	Brandon Mascia	6105470594	FP3-PNT-C530-17	Blue Rubberized Snap on Hard Skin Cover Case for Pantech Slate C530 + Clip	1	USD	4	0	2.98	0	Standard	Brandon Mascia	606 Essex Circle			King of Prussia	PA	19406	US	6105470594	0		0						
102-8613318-2573847	6.55857E+13	2009-12-15T06:34:19-08:00	2009-12-15T06:34:19-08:00	willismiller33@hotmail.com	willis miller	8016345821	HF2-HTC-ADAP-11	HTC Multifunction ALL-IN-ONE Audio Adapter for HTC Touch T-mobile G1 Shadow II Wing Sprint Mogul Att Tilt	1	USD	2.96	0	11.97	0	Expedited	willis	miller	"401 jodie way,"		page	az	86040	US	8016345821	0		0						
105-4205325-4675438	8.83148E+12	2009-12-15T07:00:34-08:00	2009-12-15T07:00:34-08:00	rachelgoldsmith1@yahoo.com	RACHEL GOLDSMITH	7329954490	FP4-BBY-9530-10-002	Black Rubber Feel with White Diamond CZ Snap-On Cover Hard Case Cell Phone Protector for BlackBerry 9500 Storm 9530 Thunder	1	USD	12.93	0	2.98	0	Standard	RACHEL GOLDSMITH	1429 FORECASTLE AVE			MANAHAWKIN	NEW JERSEY	08050-1836	US	7329954490	0		0						
