order-id	order-item-id	purchase-date	payments-date	buyer-email	buyer-name	buyer-phone-number	sku	product-name	quantity-purchased	currency	item-price	item-tax	shipping-price	shipping-tax	ship-service-level	recipient-name	ship-address-1	ship-address-2	ship-address-3	ship-city	ship-state	ship-postal-code	ship-country	ship-phone-number	item-promotion-discount	item-promotion-id	ship-promotion-discount	ship-promotion-id	delivery-start-date	delivery-end-date	delivery-time-zone	delivery-Instructions	sales-channel
103-0621178-8876239	5.17E+13	2010-08-22T07:56:55-07:00	2010-08-22T07:56:55-07:00	1q65l5531pzyr1c@marketplace.amazon.com	E W HENDERSON	(941)-227-4444	6W-HSUF-L0PZ	"Apple iPad Tablet (64GB, Wifi + 3G)"	1	USD	500	0	2.98	0	Standard	E W HENDERSON	1903 60TH PL E STE V5271			BRADENTON	FLORIDA	34203-5036	US	(941)-227-4444	0		0						
002-1234001-3487450	6.01E+13	2010-08-21T11:34:13-07:00	2010-08-21T11:34:13-07:00	mgvhmmg3ml080z1@marketplace.amazon.com	Louis Fuentes	708-323-6051	CC3-MOT-00V9-01-007	Retractable Car Charger for Motorola A855 Droid	1	USD	3.04	0	2.98	0	Standard	Louis Fuentes	16732 91ST AVE			ORLAND HILLS	IL	60487-6022	US	708-323-6051	0		0						
102-1437537-7986610	5.81E+13	2010-08-21T08:06:38-07:00	2010-08-21T08:06:38-07:00	d0kp3tgbccyyy46@marketplace.amazon.com	Alessandria Botelho	7742875896	CC3-MOT-00V9-01-066	Retractable Car Charger for HTC EVO 4G	1	USD	3.41	0	2.98	0	Standard	Aley Botelho	8D Pleasant Street			South Natick	MA	1760	US	7745710202	0		0						
